TASK2.2/risc_v_tb.vcd
$date
	Mon Mar 30 01:43:02 2026
$end
$version
	Icarus Verilog
$end
$timescale
	1ps
$end
$scope module risc_v_tb $end
$var wire 32 ! CPUOut [31:0] $end
$var reg 1 " CLK $end
$var reg 32 # CPUIn [31:0] $end
$var reg 1 $ reset $end
$scope module dut $end
$var wire 1 " CLK $end
$var wire 32 % CPUIn [31:0] $end
$var wire 1 $ reset $end
$var wire 1 & Zero $end
$var wire 32 ' SrcB [31:0] $end
$var wire 2 ( ResultSrc [1:0] $end
$var wire 1 ) RegWrite $end
$var wire 32 * ReadData [31:0] $end
$var wire 32 + RD2 [31:0] $end
$var wire 32 , RD1 [31:0] $end
$var wire 32 - PCTarget [31:0] $end
$var wire 2 . PCSrc [1:0] $end
$var wire 32 / PCPlus4 [31:0] $end
$var wire 32 0 PC [31:0] $end
$var wire 1 1 MemWrite $end
$var wire 32 2 Instr [31:0] $end
$var wire 3 3 ImmSrc [2:0] $end
$var wire 32 4 ImmExt [31:0] $end
$var wire 32 5 CPUOut [31:0] $end
$var wire 1 6 ALUSrc $end
$var wire 32 7 ALUResult [31:0] $end
$var wire 5 8 ALUControl [4:0] $end
$var reg 32 9 PCNext [31:0] $end
$var reg 32 : Result [31:0] $end
$scope module u_alu $end
$var wire 32 ; B [31:0] $end
$var wire 1 & Zero $end
$var wire 5 < ALUControl [4:0] $end
$var wire 32 = A [31:0] $end
$var reg 32 > ALUResult [31:0] $end
$var reg 32 ? arith_result [31:0] $end
$var reg 32 @ logic_result [31:0] $end
$var reg 32 A shift_result [31:0] $end
$var reg 32 B slt_result [31:0] $end
$upscope $end
$scope module u_control_unit $end
$var wire 1 & Zero $end
$var wire 7 C opcode [6:0] $end
$var wire 32 D instr [31:0] $end
$var wire 7 E funct7 [6:0] $end
$var wire 3 F funct3 [2:0] $end
$var reg 5 G ALUControl [4:0] $end
$var reg 1 6 ALUSrc $end
$var reg 3 H ImmSrc [2:0] $end
$var reg 1 1 MemWrite $end
$var reg 2 I PCSrc [1:0] $end
$var reg 1 ) RegWrite $end
$var reg 2 J ResultSrc [1:0] $end
$upscope $end
$scope module u_data_memory_and_io $end
$var wire 32 K A [31:0] $end
$var wire 1 " CLK $end
$var wire 32 L CPUIn [31:0] $end
$var wire 1 1 WE $end
$var wire 32 M WD [31:0] $end
$var wire 1 N RDsel $end
$var wire 32 O RD [31:0] $end
$var reg 32 P CPUOut [31:0] $end
$var reg 1 Q WEM $end
$var reg 1 R WEOut $end
$upscope $end
$scope module u_extend $end
$var wire 3 S ImmSrc [2:0] $end
$var wire 32 T Instr [31:0] $end
$var reg 32 U ImmExt [31:0] $end
$upscope $end
$scope module u_instruction_memory $end
$var wire 32 V Instr [31:0] $end
$var wire 32 W PC_divided_by_4 [31:0] $end
$var wire 32 X PC [31:0] $end
$upscope $end
$scope module u_pc $end
$var wire 1 " CLK $end
$var wire 32 Y PCNext [31:0] $end
$var wire 1 $ reset $end
$var reg 32 Z PC [31:0] $end
$upscope $end
$scope module u_reg_file $end
$var wire 5 [ A1 [4:0] $end
$var wire 5 \ A2 [4:0] $end
$var wire 5 ] A3 [4:0] $end
$var wire 1 " CLK $end
$var wire 32 ^ WD3 [31:0] $end
$var wire 1 ) WE3 $end
$var wire 32 _ RD2 [31:0] $end
$var wire 32 ` RD1 [31:0] $end
$upscope $end
$upscope $end
$upscope $end
$scope module risc_v_tb $end
$scope module dut $end
$scope module u_reg_file $end
$var reg 32 a \RF[8] [31:0] $end
$upscope $end
$upscope $end
$upscope $end
$scope module risc_v_tb $end
$scope module dut $end
$scope module u_reg_file $end
$var reg 32 b \RF[9] [31:0] $end
$upscope $end
$upscope $end
$upscope $end
$scope module risc_v_tb $end
$scope module dut $end
$scope module u_reg_file $end
$var reg 32 c \RF[18] [31:0] $end
$upscope $end
$upscope $end
$upscope $end
$enddefinitions $end
#0
$dumpvars
b0 c
b1111 b
b1110 a
bx `
bx _
bx ^
bx ]
bx \
bx [
bx Z
bx Y
bx X
bx W
bx V
bx U
bx T
b0 S
0R
0Q
bx P
bx O
xN
bx M
b0 L
bx K
b0 J
b0 I
b0 H
b0 G
bx F
bx E
bx D
bx C
b0x B
bx A
bx @
bx ?
bx >
bx =
b0 <
bx ;
bx :
bx 9
b0 8
bx 7
06
bx 5
bx 4
b0 3
bx 2
01
bx 0
bx /
b0 .
bx -
bx ,
bx +
bx *
0)
b0 (
bx '
x&
b0 %
1$
b0 #
0"
bx !
$end
#5000
0N
1&
b0 7
b0 >
b0 K
b0 B
b0 ?
b0 A
b0 '
b0 ;
b0 @
b10 8
b10 <
b10 G
b1 (
b1 J
16
1)
b0 +
b0 M
b0 _
b0 ,
b0 =
b0 `
b0 :
b0 ^
b0 E
b0 F
b10011 C
b110 ]
b0 \
b0 [
b100 9
b100 Y
b0 -
b0 4
b0 U
b1100010011 2
b1100010011 D
b1100010011 T
b1100010011 V
b0 W
b100 /
b0 0
b0 X
b0 Z
1"
#10000
0"
#12000
0$
#15000
b10010 ]
b1000 9
b1000 Y
b1 (
b1 J
b10 8
b10 <
b10 G
16
1)
b100100010011 2
b100100010011 D
b100100010011 T
b100100010011 V
b1 W
b100 -
b1000 /
b100 0
b100 X
b100 Z
1"
#20000
0"
#25000
b1000 :
b1000 ^
0&
b1000 7
b1000 >
b1000 K
b1 B
b1000 ?
b1110 +
b1110 M
b1110 _
b1000 '
b1000 ;
b11100 ]
b1000 \
b1100 9
b1100 Y
b1 (
b1 J
b10 8
b10 <
b10 G
16
1)
b1000 4
b1000 U
b100000000000111000010011 2
b100000000000111000010011 D
b100000000000111000010011 T
b100000000000111000010011 V
b10 W
b10000 -
b1100 /
b1000 0
b1000 X
b1000 Z
b0 c
1"
#30000
0"
#35000
b1 :
b1 ^
b1 7
b1 >
b1 K
b0 B
b1 @
b10000 ?
b11110 A
bx +
bx M
bx _
b1111 ,
b1111 =
b1111 `
b1 '
b1 ;
b111 F
b111 ]
b1 \
b1001 [
b10000 9
b10000 Y
b1 (
b1 J
b11 8
b11 <
b11 G
16
1)
b1 4
b1 U
b101001111001110010011 2
b101001111001110010011 D
b101001111001110010011 T
b101001111001110010011 V
b11 W
b1101 -
b10000 /
b1100 0
b1100 X
b1100 Z
1"
#40000
0"
#45000
b1000 :
b1000 ^
b0 @
b1 ?
b1 A
b10 3
b10 H
b10 S
b0 +
b0 M
b0 _
b1 ,
b1 =
b1 `
b0 '
b0 ;
b0 F
b1100011 C
b1000 ]
b0 \
b111 [
b10100 9
b10100 Y
b0 (
b0 J
b1010 8
b1010 <
b1010 G
06
0)
b1000 4
b1000 U
b111000010001100011 2
b111000010001100011 D
b111000010001100011 T
b111000010001100011 V
b100 W
b11000 -
b10100 /
b10000 0
b10000 X
b10000 Z
1"
#50000
0"
#55000
b1 B
b1110 '
b1110 ;
0&
b1110 7
b1110 >
b1110 K
b1110 ?
b0 A
b1 (
b1 J
1)
b1110 +
b1110 M
b1110 _
b0 ,
b0 =
b0 `
b1110 :
b1110 ^
b110011 C
b10010 ]
b1000 \
b10010 [
b11000 9
b11000 Y
b10 8
b10 <
b10 G
b0 3
b0 H
b0 S
b1000 4
b1000 U
b100010010000100100110011 2
b100010010000100100110011 D
b100010010000100100110011 T
b100010010000100100110011 V
b101 W
b11100 -
b11000 /
b10100 0
b10100 X
b10100 Z
1"
#60000
0"
#65000
b1 '
b1 ;
16
bx +
bx M
bx _
b11100 :
b11100 ^
b1 F
b10011 C
b1000 ]
b1 \
b1000 [
b11100 9
b11100 Y
b1 (
b1 J
b0 8
b0 <
b0 G
1)
b1 4
b1 U
b11100 7
b11100 >
b11100 K
b0 B
b0 @
b1111 ?
b11100 A
b1110 ,
b1110 =
b1110 `
b101000001010000010011 2
b101000001010000010011 D
b101000001010000010011 T
b101000001010000010011 V
b110 W
b11001 -
b11100 /
b11000 0
b11000 X
b11000 Z
b1110 c
1"
#70000
0"
#75000
b111 :
b111 ^
b10000 8
b10000 <
b10000 G
b111 7
b111 >
b111 K
b1 @
b10000 ?
b111 A
b1111 ,
b1111 =
b1111 `
b101 F
b1001 ]
b1001 [
b100000 9
b100000 Y
b1 (
b1 J
16
1)
b11100 a
b101001101010010010011 2
b101001101010010010011 D
b101001101010010010011 T
b101001101010010010011 V
b111 W
b11101 -
b100000 /
b11100 0
b11100 X
b11100 Z
1"
#80000
0"
#85000
b1 B
b0 @
b1 :
b1 ^
b0 F
b110 ]
b110 [
b100100 9
b100100 Y
b1 (
b1 J
b10 8
b10 <
b10 G
16
1)
b1 7
b1 >
b1 K
b1 ?
b0 A
b0 ,
b0 =
b0 `
b100110000001100010011 2
b100110000001100010011 D
b100110000001100010011 T
b100110000001100010011 V
b1000 W
b100001 -
b100100 /
b100000 0
b100000 X
b100000 Z
b111 b
1"
#90000
0"
#95000
0&
b11111111111111111111111111101000 :
b11111111111111111111111111101000 ^
b1 .
b1 I
b10 3
b10 H
b10 S
b1000 +
b1000 M
b1000 _
b1000 '
b1000 ;
b1 7
b1 >
b1 K
b1 B
b0 @
b11111111111111111111111111111001 ?
b100000000 A
b1 ,
b1 =
b1 `
b1111111 E
b100 F
b1100011 C
b1001 ]
b11100 \
b1100 9
b1100 Y
b0 (
b0 J
b1001 8
b1001 <
b1001 G
06
0)
b11111111111111111111111111101000 4
b11111111111111111111111111101000 U
b11111111110000110100010011100011 2
b11111111110000110100010011100011 D
b11111111110000110100010011100011 T
b11111111110000110100010011100011 V
b1001 W
b1100 -
b101000 /
b100100 0
b100100 X
b100100 Z
1"
#100000
0"
#105000
b0 B
b1 @
b1 '
b1 ;
0&
b1 7
b1 >
b1 K
b1000 ?
b1110 A
b1 (
b1 J
16
1)
bx +
bx M
bx _
b111 ,
b111 =
b111 `
b1 :
b1 ^
b0 E
b111 F
b10011 C
b111 ]
b1 \
b1001 [
b10000 9
b10000 Y
b0 .
b0 I
b11 8
b11 <
b11 G
b0 3
b0 H
b0 S
b1 4
b1 U
b101001111001110010011 2
b101001111001110010011 D
b101001111001110010011 T
b101001111001110010011 V
b11 W
b1101 -
b10000 /
b1100 0
b1100 X
b1100 Z
1"
#110000
0"
#115000
b1000 :
b1000 ^
b0 @
b1 ?
b1 A
b10 3
b10 H
b10 S
b0 +
b0 M
b0 _
b1 ,
b1 =
b1 `
b0 '
b0 ;
b0 F
b1100011 C
b1000 ]
b0 \
b111 [
b10100 9
b10100 Y
b0 (
b0 J
b1010 8
b1010 <
b1010 G
06
0)
b1000 4
b1000 U
b111000010001100011 2
b111000010001100011 D
b111000010001100011 T
b111000010001100011 V
b100 W
b11000 -
b10100 /
b10000 0
b10000 X
b10000 Z
1"
#120000
0"
#125000
b1 B
b1100 @
b11100 '
b11100 ;
b101010 7
b101010 >
b101010 K
b101010 ?
b11100000000000000000000000000000 A
b1 (
b1 J
1)
b11100 +
b11100 M
b11100 _
b1110 ,
b1110 =
b1110 `
b101010 :
b101010 ^
b110011 C
b10010 ]
b1000 \
b10010 [
b11000 9
b11000 Y
b10 8
b10 <
b10 G
b0 3
b0 H
b0 S
b1000 4
b1000 U
b100010010000100100110011 2
b100010010000100100110011 D
b100010010000100100110011 T
b100010010000100100110011 V
b101 W
b11100 -
b11000 /
b10100 0
b10100 X
b10100 Z
1"
#130000
0"
#135000
b1 '
b1 ;
b111000 :
b111000 ^
16
bx +
bx M
bx _
b111000 7
b111000 >
b111000 K
b0 B
b0 @
b11101 ?
b111000 A
b11100 ,
b11100 =
b11100 `
b1 F
b10011 C
b1000 ]
b1 \
b1000 [
b11100 9
b11100 Y
b1 (
b1 J
b0 8
b0 <
b0 G
1)
b1 4
b1 U
b101010 c
b101000001010000010011 2
b101000001010000010011 D
b101000001010000010011 T
b101000001010000010011 V
b110 W
b11001 -
b11100 /
b11000 0
b11000 X
b11000 Z
1"
#140000
0"
#145000
b1 @
b10000 8
b10000 <
b10000 G
b11 :
b11 ^
b101 F
b1001 ]
b1001 [
b100000 9
b100000 Y
b1 (
b1 J
16
1)
b11 7
b11 >
b11 K
b1000 ?
b11 A
b111 ,
b111 =
b111 `
b101001101010010010011 2
b101001101010010010011 D
b101001101010010010011 T
b101001101010010010011 V
b111 W
b11101 -
b100000 /
b11100 0
b11100 X
b11100 Z
b111000 a
1"
#150000
0"
#155000
b10 :
b10 ^
0&
b10 7
b10 >
b10 K
b10 ?
b10 A
b1 ,
b1 =
b1 `
b0 F
b110 ]
b110 [
b100100 9
b100100 Y
b1 (
b1 J
b10 8
b10 <
b10 G
16
1)
b11 b
b100110000001100010011 2
b100110000001100010011 D
b100110000001100010011 T
b100110000001100010011 V
b1000 W
b100001 -
b100100 /
b100000 0
b100000 X
b100000 Z
1"
#160000
0"
#165000
b1 B
0&
b1 .
b1 I
b10 3
b10 H
b10 S
b1000 +
b1000 M
b1000 _
b1000 '
b1000 ;
b11111111111111111111111111101000 :
b11111111111111111111111111101000 ^
b1111111 E
b100 F
b1100011 C
b1001 ]
b11100 \
b1100 9
b1100 Y
b0 (
b0 J
b1001 8
b1001 <
b1001 G
06
0)
b11111111111111111111111111101000 4
b11111111111111111111111111101000 U
b1 7
b1 >
b1 K
b0 @
b11111111111111111111111111111010 ?
b1000000000 A
b10 ,
b10 =
b10 `
b11111111110000110100010011100011 2
b11111111110000110100010011100011 D
b11111111110000110100010011100011 T
b11111111110000110100010011100011 V
b1001 W
b1100 -
b101000 /
b100100 0
b100100 X
b100100 Z
1"
#170000
0"
#175000
b0 B
b1 @
b1 '
b1 ;
0&
b1 7
b1 >
b1 K
b100 ?
b110 A
b1 (
b1 J
16
1)
bx +
bx M
bx _
b11 ,
b11 =
b11 `
b1 :
b1 ^
b0 E
b111 F
b10011 C
b111 ]
b1 \
b1001 [
b10000 9
b10000 Y
b0 .
b0 I
b11 8
b11 <
b11 G
b0 3
b0 H
b0 S
b1 4
b1 U
b101001111001110010011 2
b101001111001110010011 D
b101001111001110010011 T
b101001111001110010011 V
b11 W
b1101 -
b10000 /
b1100 0
b1100 X
b1100 Z
1"
#180000
0"
#185000
b1000 :
b1000 ^
b0 @
b1 ?
b1 A
b10 3
b10 H
b10 S
b0 +
b0 M
b0 _
b1 ,
b1 =
b1 `
b0 '
b0 ;
b0 F
b1100011 C
b1000 ]
b0 \
b111 [
b10100 9
b10100 Y
b0 (
b0 J
b1010 8
b1010 <
b1010 G
06
0)
b1000 4
b1000 U
b111000010001100011 2
b111000010001100011 D
b111000010001100011 T
b111000010001100011 V
b100 W
b11000 -
b10100 /
b10000 0
b10000 X
b10000 Z
1"
#190000
0"
#195000
b1 B
b101000 @
b111000 '
b111000 ;
b1100010 7
b1100010 >
b1100010 K
b1100010 ?
b101010000000000000000000000000 A
b1 (
b1 J
1)
b111000 +
b111000 M
b111000 _
b101010 ,
b101010 =
b101010 `
b1100010 :
b1100010 ^
b110011 C
b10010 ]
b1000 \
b10010 [
b11000 9
b11000 Y
b10 8
b10 <
b10 G
b0 3
b0 H
b0 S
b1000 4
b1000 U
b100010010000100100110011 2
b100010010000100100110011 D
b100010010000100100110011 T
b100010010000100100110011 V
b101 W
b11100 -
b11000 /
b10100 0
b10100 X
b10100 Z
1"
#200000
0"
#205000
b1 '
b1 ;
16
bx +
bx M
bx _
b1110000 :
b1110000 ^
b1 F
b10011 C
b1000 ]
b1 \
b1000 [
b11100 9
b11100 Y
b1 (
b1 J
b0 8
b0 <
b0 G
1)
b1 4
b1 U
b1110000 7
b1110000 >
b1110000 K
b0 B
b0 @
b111001 ?
b1110000 A
b111000 ,
b111000 =
b111000 `
b101000001010000010011 2
b101000001010000010011 D
b101000001010000010011 T
b101000001010000010011 V
b110 W
b11001 -
b11100 /
b11000 0
b11000 X
b11000 Z
b1100010 c
1"
#210000
0"
#215000
b1 :
b1 ^
b10000 8
b10000 <
b10000 G
b1 7
b1 >
b1 K
b1 @
b100 ?
b1 A
b11 ,
b11 =
b11 `
b101 F
b1001 ]
b1001 [
b100000 9
b100000 Y
b1 (
b1 J
16
1)
b1110000 a
b101001101010010010011 2
b101001101010010010011 D
b101001101010010010011 T
b101001101010010010011 V
b111 W
b11101 -
b100000 /
b11100 0
b11100 X
b11100 Z
1"
#220000
0"
#225000
b0 @
b11 :
b11 ^
b0 F
b110 ]
b110 [
b100100 9
b100100 Y
b1 (
b1 J
b10 8
b10 <
b10 G
16
1)
0&
b11 7
b11 >
b11 K
b11 ?
b100 A
b10 ,
b10 =
b10 `
b100110000001100010011 2
b100110000001100010011 D
b100110000001100010011 T
b100110000001100010011 V
b1000 W
b100001 -
b100100 /
b100000 0
b100000 X
b100000 Z
b1 b
1"
#230000
0"
#235000
b1 B
0&
b11111111111111111111111111101000 :
b11111111111111111111111111101000 ^
b1 .
b1 I
b10 3
b10 H
b10 S
b1000 +
b1000 M
b1000 _
b1000 '
b1000 ;
b1 7
b1 >
b1 K
b0 @
b11111111111111111111111111111011 ?
b1100000000 A
b11 ,
b11 =
b11 `
b1111111 E
b100 F
b1100011 C
b1001 ]
b11100 \
b1100 9
b1100 Y
b0 (
b0 J
b1001 8
b1001 <
b1001 G
06
0)
b11111111111111111111111111101000 4
b11111111111111111111111111101000 U
b11111111110000110100010011100011 2
b11111111110000110100010011100011 D
b11111111110000110100010011100011 T
b11111111110000110100010011100011 V
b1001 W
b1100 -
b101000 /
b100100 0
b100100 X
b100100 Z
1"
#240000
0"
#245000
b0 B
b1 @
b1 '
b1 ;
0&
b1 7
b1 >
b1 K
b10 ?
b10 A
b1 (
b1 J
16
1)
bx +
bx M
bx _
b1 ,
b1 =
b1 `
b1 :
b1 ^
b0 E
b111 F
b10011 C
b111 ]
b1 \
b1001 [
b10000 9
b10000 Y
b0 .
b0 I
b11 8
b11 <
b11 G
b0 3
b0 H
b0 S
b1 4
b1 U
b101001111001110010011 2
b101001111001110010011 D
b101001111001110010011 T
b101001111001110010011 V
b11 W
b1101 -
b10000 /
b1100 0
b1100 X
b1100 Z
1"
#250000
0"
#255000
b1000 :
b1000 ^
b0 @
b1 ?
b1 A
b10 3
b10 H
b10 S
b0 +
b0 M
b0 _
b0 '
b0 ;
b0 F
b1100011 C
b1000 ]
b0 \
b111 [
b10100 9
b10100 Y
b0 (
b0 J
b1010 8
b1010 <
b1010 G
06
0)
b1000 4
b1000 U
b111000010001100011 2
b111000010001100011 D
b111000010001100011 T
b111000010001100011 V
b100 W
b11000 -
b10100 /
b10000 0
b10000 X
b10000 Z
1"
#260000
0"
#265000
b1 B
b1100000 @
b1110000 '
b1110000 ;
b11010010 7
b11010010 >
b11010010 K
b11010010 ?
b11000100000000000000000 A
b1 (
b1 J
1)
b1110000 +
b1110000 M
b1110000 _
b1100010 ,
b1100010 =
b1100010 `
b11010010 :
b11010010 ^
b110011 C
b10010 ]
b1000 \
b10010 [
b11000 9
b11000 Y
b10 8
b10 <
b10 G
b0 3
b0 H
b0 S
b1000 4
b1000 U
b100010010000100100110011 2
b100010010000100100110011 D
b100010010000100100110011 T
b100010010000100100110011 V
b101 W
b11100 -
b11000 /
b10100 0
b10100 X
b10100 Z
1"
#270000
0"
#275000
b1 '
b1 ;
b11100000 :
b11100000 ^
16
bx +
bx M
bx _
b11100000 7
b11100000 >
b11100000 K
b0 B
b0 @
b1110001 ?
b11100000 A
b1110000 ,
b1110000 =
b1110000 `
b1 F
b10011 C
b1000 ]
b1 \
b1000 [
b11100 9
b11100 Y
b1 (
b1 J
b0 8
b0 <
b0 G
1)
b1 4
b1 U
b11010010 c
b101000001010000010011 2
b101000001010000010011 D
b101000001010000010011 T
b101000001010000010011 V
b110 W
b11001 -
b11100 /
b11000 0
b11000 X
b11000 Z
1"
#280000
0"
#285000
1&
b1 @
b10000 8
b10000 <
b10000 G
b0 :
b0 ^
b101 F
b1001 ]
b1001 [
b100000 9
b100000 Y
b1 (
b1 J
16
1)
b0 7
b0 >
b0 K
b10 ?
b0 A
b1 ,
b1 =
b1 `
b101001101010010010011 2
b101001101010010010011 D
b101001101010010010011 T
b101001101010010010011 V
b111 W
b11101 -
b100000 /
b11100 0
b11100 X
b11100 Z
b11100000 a
1"
#290000
0"
#295000
b100 :
b100 ^
0&
b100 7
b100 >
b100 K
b100 ?
b110 A
b11 ,
b11 =
b11 `
b0 F
b110 ]
b110 [
b100100 9
b100100 Y
b1 (
b1 J
b10 8
b10 <
b10 G
16
1)
b0 b
b100110000001100010011 2
b100110000001100010011 D
b100110000001100010011 T
b100110000001100010011 V
b1000 W
b100001 -
b100100 /
b100000 0
b100000 X
b100000 Z
1"
#300000
0"
#305000
b1 B
0&
b1 .
b1 I
b10 3
b10 H
b10 S
b1000 +
b1000 M
b1000 _
b1000 '
b1000 ;
b11111111111111111111111111101000 :
b11111111111111111111111111101000 ^
b1111111 E
b100 F
b1100011 C
b1001 ]
b11100 \
b1100 9
b1100 Y
b0 (
b0 J
b1001 8
b1001 <
b1001 G
06
0)
b11111111111111111111111111101000 4
b11111111111111111111111111101000 U
b1 7
b1 >
b1 K
b0 @
b11111111111111111111111111111100 ?
b10000000000 A
b100 ,
b100 =
b100 `
b11111111110000110100010011100011 2
b11111111110000110100010011100011 D
b11111111110000110100010011100011 T
b11111111110000110100010011100011 V
b1001 W
b1100 -
b101000 /
b100100 0
b100100 X
b100100 Z
1"
#310000
0"
#315000
b1 '
b1 ;
1&
b0 7
b0 >
b0 K
b1 ?
b0 A
b1 (
b1 J
16
1)
bx +
bx M
bx _
b0 ,
b0 =
b0 `
b0 :
b0 ^
b0 E
b111 F
b10011 C
b111 ]
b1 \
b1001 [
b10000 9
b10000 Y
b0 .
b0 I
b11 8
b11 <
b11 G
b0 3
b0 H
b0 S
b1 4
b1 U
b101001111001110010011 2
b101001111001110010011 D
b101001111001110010011 T
b101001111001110010011 V
b11 W
b1101 -
b10000 /
b1100 0
b1100 X
b1100 Z
1"
#320000
0"
#325000
b1000 :
b1000 ^
b0 B
b0 ?
b1 .
b1 I
b10 3
b10 H
b10 S
b0 +
b0 M
b0 _
b0 '
b0 ;
b0 F
b1100011 C
b1000 ]
b0 \
b111 [
b11000 9
b11000 Y
b0 (
b0 J
b1010 8
b1010 <
b1010 G
06
0)
b1000 4
b1000 U
b111000010001100011 2
b111000010001100011 D
b111000010001100011 T
b111000010001100011 V
b100 W
b11000 -
b10100 /
b10000 0
b10000 X
b10000 Z
1"
#330000
0"
#335000
b111000000 :
b111000000 ^
b1 '
b1 ;
b1 4
b1 U
0&
b111000000 7
b111000000 >
b111000000 K
b11100001 ?
b111000000 A
b1 (
b1 J
16
1)
bx +
bx M
bx _
b11100000 ,
b11100000 =
b11100000 `
b1 F
b10011 C
b1 \
b1000 [
b11100 9
b11100 Y
b0 .
b0 I
b0 8
b0 <
b0 G
b0 3
b0 H
b0 S
b101000001010000010011 2
b101000001010000010011 D
b101000001010000010011 T
b101000001010000010011 V
b110 W
b11001 -
b11100 /
b11000 0
b11000 X
b11000 Z
1"
#340000
0"
#345000
1&
b1 B
b10000 8
b10000 <
b10000 G
b0 :
b0 ^
b101 F
b1001 ]
b1001 [
b100000 9
b100000 Y
b1 (
b1 J
16
1)
b0 7
b0 >
b0 K
b1 ?
b0 A
b0 ,
b0 =
b0 `
b101001101010010010011 2
b101001101010010010011 D
b101001101010010010011 T
b101001101010010010011 V
b111 W
b11101 -
b100000 /
b11100 0
b11100 X
b11100 Z
b111000000 a
1"
#350000
0"
#355000
b101 :
b101 ^
0&
b101 7
b101 >
b101 K
b0 B
b101 ?
b1000 A
b100 ,
b100 =
b100 `
b0 F
b110 ]
b110 [
b100100 9
b100100 Y
b1 (
b1 J
b10 8
b10 <
b10 G
16
1)
b0 b
b100110000001100010011 2
b100110000001100010011 D
b100110000001100010011 T
b100110000001100010011 V
b1000 W
b100001 -
b100100 /
b100000 0
b100000 X
b100000 Z
1"
#360000
0"
#365000
b1 B
0&
b1 .
b1 I
b10 3
b10 H
b10 S
b1000 +
b1000 M
b1000 _
b1000 '
b1000 ;
b11111111111111111111111111101000 :
b11111111111111111111111111101000 ^
b1111111 E
b100 F
b1100011 C
b1001 ]
b11100 \
b1100 9
b1100 Y
b0 (
b0 J
b1001 8
b1001 <
b1001 G
06
0)
b11111111111111111111111111101000 4
b11111111111111111111111111101000 U
b1 7
b1 >
b1 K
b0 @
b11111111111111111111111111111101 ?
b10100000000 A
b101 ,
b101 =
b101 `
b11111111110000110100010011100011 2
b11111111110000110100010011100011 D
b11111111110000110100010011100011 T
b11111111110000110100010011100011 V
b1001 W
b1100 -
b101000 /
b100100 0
b100100 X
b100100 Z
1"
#370000
0"
#375000
b1 '
b1 ;
1&
b0 7
b0 >
b0 K
b1 ?
b0 A
b1 (
b1 J
16
1)
bx +
bx M
bx _
b0 ,
b0 =
b0 `
b0 :
b0 ^
b0 E
b111 F
b10011 C
b111 ]
b1 \
b1001 [
b10000 9
b10000 Y
b0 .
b0 I
b11 8
b11 <
b11 G
b0 3
b0 H
b0 S
b1 4
b1 U
b101001111001110010011 2
b101001111001110010011 D
b101001111001110010011 T
b101001111001110010011 V
b11 W
b1101 -
b10000 /
b1100 0
b1100 X
b1100 Z
1"
#380000
0"
#385000
b1000 :
b1000 ^
b0 B
b0 ?
b1 .
b1 I
b10 3
b10 H
b10 S
b0 +
b0 M
b0 _
b0 '
b0 ;
b0 F
b1100011 C
b1000 ]
b0 \
b111 [
b11000 9
b11000 Y
b0 (
b0 J
b1010 8
b1010 <
b1010 G
06
0)
b1000 4
b1000 U
b111000010001100011 2
b111000010001100011 D
b111000010001100011 T
b111000010001100011 V
b100 W
b11000 -
b10100 /
b10000 0
b10000 X
b10000 Z
1"
#390000
0"
#395000
b1110000000 :
b1110000000 ^
b1 '
b1 ;
b1 4
b1 U
0&
b1110000000 7
b1110000000 >
b1110000000 K
b111000001 ?
b1110000000 A
b1 (
b1 J
16
1)
bx +
bx M
bx _
b111000000 ,
b111000000 =
b111000000 `
b1 F
b10011 C
b1 \
b1000 [
b11100 9
b11100 Y
b0 .
b0 I
b0 8
b0 <
b0 G
b0 3
b0 H
b0 S
b101000001010000010011 2
b101000001010000010011 D
b101000001010000010011 T
b101000001010000010011 V
b110 W
b11001 -
b11100 /
b11000 0
b11000 X
b11000 Z
1"
#400000
0"
#405000
1&
b1 B
b10000 8
b10000 <
b10000 G
b0 :
b0 ^
b101 F
b1001 ]
b1001 [
b100000 9
b100000 Y
b1 (
b1 J
16
1)
b0 7
b0 >
b0 K
b1 ?
b0 A
b0 ,
b0 =
b0 `
b101001101010010010011 2
b101001101010010010011 D
b101001101010010010011 T
b101001101010010010011 V
b111 W
b11101 -
b100000 /
b11100 0
b11100 X
b11100 Z
b1110000000 a
1"
#410000
0"
#415000
b110 :
b110 ^
0&
b110 7
b110 >
b110 K
b0 B
b1 @
b110 ?
b1010 A
b101 ,
b101 =
b101 `
b0 F
b110 ]
b110 [
b100100 9
b100100 Y
b1 (
b1 J
b10 8
b10 <
b10 G
16
1)
b0 b
b100110000001100010011 2
b100110000001100010011 D
b100110000001100010011 T
b100110000001100010011 V
b1000 W
b100001 -
b100100 /
b100000 0
b100000 X
b100000 Z
1"
#420000
0"
#425000
b1 B
0&
b1 .
b1 I
b10 3
b10 H
b10 S
b1000 +
b1000 M
b1000 _
b1000 '
b1000 ;
b11111111111111111111111111101000 :
b11111111111111111111111111101000 ^
b1111111 E
b100 F
b1100011 C
b1001 ]
b11100 \
b1100 9
b1100 Y
b0 (
b0 J
b1001 8
b1001 <
b1001 G
06
0)
b11111111111111111111111111101000 4
b11111111111111111111111111101000 U
b1 7
b1 >
b1 K
b0 @
b11111111111111111111111111111110 ?
b11000000000 A
b110 ,
b110 =
b110 `
b11111111110000110100010011100011 2
b11111111110000110100010011100011 D
b11111111110000110100010011100011 T
b11111111110000110100010011100011 V
b1001 W
b1100 -
b101000 /
b100100 0
b100100 X
b100100 Z
1"
#430000
0"
#435000
b1 '
b1 ;
1&
b0 7
b0 >
b0 K
b1 ?
b0 A
b1 (
b1 J
16
1)
bx +
bx M
bx _
b0 ,
b0 =
b0 `
b0 :
b0 ^
b0 E
b111 F
b10011 C
b111 ]
b1 \
b1001 [
b10000 9
b10000 Y
b0 .
b0 I
b11 8
b11 <
b11 G
b0 3
b0 H
b0 S
b1 4
b1 U
b101001111001110010011 2
b101001111001110010011 D
b101001111001110010011 T
b101001111001110010011 V
b11 W
b1101 -
b10000 /
b1100 0
b1100 X
b1100 Z
1"
#440000
0"
#445000
b1000 :
b1000 ^
b0 B
b0 ?
b1 .
b1 I
b10 3
b10 H
b10 S
b0 +
b0 M
b0 _
b0 '
b0 ;
b0 F
b1100011 C
b1000 ]
b0 \
b111 [
b11000 9
b11000 Y
b0 (
b0 J
b1010 8
b1010 <
b1010 G
06
0)
b1000 4
b1000 U
b111000010001100011 2
b111000010001100011 D
b111000010001100011 T
b111000010001100011 V
b100 W
b11000 -
b10100 /
b10000 0
b10000 X
b10000 Z
1"
#450000
0"
#455000
b11100000000 :
b11100000000 ^
b1 '
b1 ;
b1 4
b1 U
0&
b11100000000 7
b11100000000 >
b11100000000 K
b1110000001 ?
b11100000000 A
b1 (
b1 J
16
1)
bx +
bx M
bx _
b1110000000 ,
b1110000000 =
b1110000000 `
b1 F
b10011 C
b1 \
b1000 [
b11100 9
b11100 Y
b0 .
b0 I
b0 8
b0 <
b0 G
b0 3
b0 H
b0 S
b101000001010000010011 2
b101000001010000010011 D
b101000001010000010011 T
b101000001010000010011 V
b110 W
b11001 -
b11100 /
b11000 0
b11000 X
b11000 Z
1"
#460000
0"
