SVcode/risc_v/risc_v_tb.vcd
$date
	Sun Mar 29 07:44:45 2026
$end
$version
	Icarus Verilog
$end
$timescale
	1ps
$end
$scope module risc_v_tb $end
$var wire 32 ! CPUOut [31:0] $end
$var reg 1 " CLK $end
$var reg 32 # CPUIn [31:0] $end
$var reg 1 $ reset $end
$scope module dut $end
$var wire 1 " CLK $end
$var wire 32 % CPUIn [31:0] $end
$var wire 1 $ reset $end
$var wire 1 & Zero $end
$var wire 32 ' SrcB [31:0] $end
$var wire 2 ( ResultSrc [1:0] $end
$var wire 1 ) RegWrite $end
$var wire 32 * ReadData [31:0] $end
$var wire 32 + RD2 [31:0] $end
$var wire 32 , RD1 [31:0] $end
$var wire 32 - PCTarget [31:0] $end
$var wire 2 . PCSrc [1:0] $end
$var wire 32 / PCPlus4 [31:0] $end
$var wire 32 0 PC [31:0] $end
$var wire 1 1 MemWrite $end
$var wire 32 2 Instr [31:0] $end
$var wire 3 3 ImmSrc [2:0] $end
$var wire 32 4 ImmExt [31:0] $end
$var wire 32 5 CPUOut [31:0] $end
$var wire 1 6 ALUSrc $end
$var wire 32 7 ALUResult [31:0] $end
$var wire 5 8 ALUControl [4:0] $end
$var reg 32 9 PCNext [31:0] $end
$var reg 32 : Result [31:0] $end
$scope module u_alu $end
$var wire 32 ; B [31:0] $end
$var wire 1 & Zero $end
$var wire 5 < ALUControl [4:0] $end
$var wire 32 = A [31:0] $end
$var reg 32 > ALUResult [31:0] $end
$var reg 32 ? arith_result [31:0] $end
$var reg 32 @ logic_result [31:0] $end
$var reg 32 A shift_result [31:0] $end
$var reg 32 B slt_result [31:0] $end
$upscope $end
$scope module u_control_unit $end
$var wire 1 & Zero $end
$var wire 7 C opcode [6:0] $end
$var wire 32 D instr [31:0] $end
$var wire 7 E funct7 [6:0] $end
$var wire 3 F funct3 [2:0] $end
$var reg 5 G ALUControl [4:0] $end
$var reg 1 6 ALUSrc $end
$var reg 3 H ImmSrc [2:0] $end
$var reg 1 1 MemWrite $end
$var reg 2 I PCSrc [1:0] $end
$var reg 1 ) RegWrite $end
$var reg 2 J ResultSrc [1:0] $end
$upscope $end
$scope module u_data_memory_and_io $end
$var wire 32 K A [31:0] $end
$var wire 1 " CLK $end
$var wire 32 L CPUIn [31:0] $end
$var wire 1 1 WE $end
$var wire 32 M WD [31:0] $end
$var wire 1 N RDsel $end
$var wire 32 O RD [31:0] $end
$var reg 32 P CPUOut [31:0] $end
$var reg 1 Q WEM $end
$var reg 1 R WEOut $end
$upscope $end
$scope module u_extend $end
$var wire 3 S ImmSrc [2:0] $end
$var wire 32 T Instr [31:0] $end
$var reg 32 U ImmExt [31:0] $end
$upscope $end
$scope module u_instruction_memory $end
$var wire 32 V Instr [31:0] $end
$var wire 32 W PC_divided_by_4 [31:0] $end
$var wire 32 X PC [31:0] $end
$upscope $end
$scope module u_pc $end
$var wire 1 " CLK $end
$var wire 32 Y PCNext [31:0] $end
$var wire 1 $ reset $end
$var reg 32 Z PC [31:0] $end
$upscope $end
$scope module u_reg_file $end
$var wire 5 [ A1 [4:0] $end
$var wire 5 \ A2 [4:0] $end
$var wire 5 ] A3 [4:0] $end
$var wire 1 " CLK $end
$var wire 32 ^ WD3 [31:0] $end
$var wire 1 ) WE3 $end
$var wire 32 _ RD2 [31:0] $end
$var wire 32 ` RD1 [31:0] $end
$upscope $end
$upscope $end
$upscope $end
$enddefinitions $end
#0
$dumpvars
bx `
bx _
bx ^
bx ]
bx \
bx [
bx Z
bx Y
bx X
bx W
bx V
bx U
bx T
b0 S
0R
0Q
bx P
bx O
xN
bx M
b10100 L
bx K
b0 J
b0 I
b0 H
b0 G
bx F
bx E
bx D
bx C
b0x B
bx A
bx @
bx ?
bx >
bx =
b0 <
bx ;
bx :
bx 9
b0 8
bx 7
06
bx 5
bx 4
b0 3
bx 2
01
bx 0
bx /
b0 .
bx -
bx ,
bx +
bx *
0)
b0 (
bx '
x&
b10100 %
1$
b10100 #
0"
bx !
$end
#5000
0N
1&
b0 7
b0 >
b0 K
b0 B
b0 ?
b0 A
b0 '
b0 ;
b0 @
b11 3
b11 H
b11 S
1)
b0 +
b0 M
b0 _
b0 ,
b0 =
b0 `
b10000000000000000000000000000000 :
b10000000000000000000000000000000 ^
b1000000 E
b0 F
b110111 C
b11111 ]
b0 \
b0 [
b100 9
b100 Y
b10000000000000000000000000000000 -
b10000000000000000000000000000000 4
b10000000000000000000000000000000 U
b10000000000000000000111110110111 2
b10000000000000000000111110110111 D
b10000000000000000000111110110111 T
b10000000000000000000111110110111 V
b0 W
b100 /
b0 0
b0 X
b0 Z
1"
#10000
0"
#12000
0$
#15000
b10100 *
b10100 O
1N
b10000000000000000000000000000000 @
b11111111111111111111111111111100 '
b11111111111111111111111111111100 ;
0&
b1111111111111111111111111111100 7
b1111111111111111111111111111100 >
b1111111111111111111111111111100 K
b1 B
b1111111111111111111111111111100 ?
b0 A
b10 8
b10 <
b10 G
b1 (
b1 J
16
bx +
bx M
bx _
b10000000000000000000000000000000 ,
b10000000000000000000000000000000 =
b10000000000000000000000000000000 `
b1111111111111111111111111111100 :
b1111111111111111111111111111100 ^
b1111111 E
b10011 C
b11100 \
b11111 [
b1000 9
b1000 Y
b0 3
b0 H
b0 S
1)
b11111111111111111111111111111100 4
b11111111111111111111111111111100 U
b11111111110011111000111110010011 2
b11111111110011111000111110010011 D
b11111111110011111000111110010011 T
b11111111110011111000111110010011 V
b1 W
b0 -
b1000 /
b100 0
b100 X
b100 Z
1"
#20000
0"
#25000
bx *
bx O
0N
b0 +
b0 M
b0 _
b10000000 '
b10000000 ;
b10000000 :
b10000000 ^
b100 E
b1 ]
b0 \
b0 [
b1100 9
b1100 Y
b1 (
b1 J
b10 8
b10 <
b10 G
16
1)
b10000000 4
b10000000 U
b10000000 7
b10000000 >
b10000000 K
b1 B
b0 @
b10000000 ?
b0 A
b0 ,
b0 =
b0 `
b1000000000000000000010010011 2
b1000000000000000000010010011 D
b1000000000000000000010010011 T
b1000000000000000000010010011 V
b10 W
b10001000 -
b1100 /
b1000 0
b1000 X
b1000 Z
1"
#30000
0"
#35000
b10100 *
b10100 O
1N
1R
0Q
b0 :
b0 ^
b1111111111111111111111111111100 7
b1111111111111111111111111111100 >
b1111111111111111111111111111100 K
b0 B
b1111111111111111111111111111100 ?
b1111111111111111111111111111100 A
11
b1 3
b1 H
b1 S
b10000000 +
b10000000 M
b10000000 _
b1111111111111111111111111111100 ,
b1111111111111111111111111111100 =
b1111111111111111111111111111100 `
b0 '
b0 ;
b0 E
b10 F
b100011 C
b0 ]
b1 \
b11111 [
b10000 9
b10000 Y
b0 (
b0 J
b10 8
b10 <
b10 G
16
0)
b0 4
b0 U
b111111010000000100011 2
b111111010000000100011 D
b111111010000000100011 T
b111111010000000100011 V
b11 W
b1100 -
b10000 /
b1100 0
b1100 X
b1100 Z
1"
#40000
0"
#45000
bx *
bx O
0N
0R
b1 7
b1 >
b1 K
b1 B
b1 ?
b0 A
b1 (
b1 J
1)
b0 ,
b0 =
b0 `
b1 '
b1 ;
b1 :
b1 ^
b0 F
b10011 C
b1 ]
b0 [
b10100 9
b10100 Y
01
b10 8
b10 <
b10 G
16
b0 3
b0 H
b0 S
b1 4
b1 U
b100000000000010010011 2
b100000000000010010011 D
b100000000000010010011 T
b100000000000010010011 V
b100 W
b10001 -
b10100 /
b10000 0
b10000 X
b10000 Z
b10000000 !
b10000000 5
b10000000 P
1"
#50000
0"
#55000
b11 :
b11 ^
b11 7
b11 >
b11 K
b11 ?
b11 '
b11 ;
bx +
bx M
bx _
b10 ]
b11 \
b11000 9
b11000 Y
b1 (
b1 J
b10 8
b10 <
b10 G
16
1)
b11 4
b11 U
b1100000000000100010011 2
b1100000000000100010011 D
b1100000000000100010011 T
b1100000000000100010011 V
b101 W
b10111 -
b11000 /
b10100 0
b10100 X
b10100 Z
1"
#60000
0"
#65000
b100 :
b100 ^
b100 7
b100 >
b100 K
b1 @
b100 ?
b1000 A
b11 +
b11 M
b11 _
b1 ,
b1 =
b1 `
b11 '
b11 ;
b110011 C
b11 ]
b10 \
b1 [
b11100 9
b11100 Y
b1 (
b1 J
b10 8
b10 <
b10 G
06
1)
b10 4
b10 U
b1000001000000110110011 2
b1000001000000110110011 D
b1000001000000110110011 T
b1000001000000110110011 V
b110 W
b11010 -
b11100 /
b11000 0
b11000 X
b11000 Z
1"
#70000
0"
#75000
b10100 *
b10100 O
1N
1R
0Q
b0 :
b0 ^
b0 '
b0 ;
b1111111111111111111111111111100 7
b1111111111111111111111111111100 >
b1111111111111111111111111111100 K
b0 B
b0 @
b1111111111111111111111111111100 ?
b1111111111111111111111111111100 A
11
16
b1 3
b1 H
b1 S
b100 +
b100 M
b100 _
b1111111111111111111111111111100 ,
b1111111111111111111111111111100 =
b1111111111111111111111111111100 `
b10 F
b100011 C
b0 ]
b11 \
b11111 [
b100000 9
b100000 Y
b0 (
b0 J
b10 8
b10 <
b10 G
0)
b0 4
b0 U
b1111111010000000100011 2
b1111111010000000100011 D
b1111111010000000100011 T
b1111111010000000100011 V
b111 W
b11100 -
b100000 /
b11100 0
b11100 X
b11100 Z
1"
#80000
0"
#85000
bx *
bx O
0N
0R
b11111111111111111111111111111110 7
b11111111111111111111111111111110 >
b11111111111111111111111111111110 K
b1 B
b1 @
b11111111111111111111111111111110 ?
b1000 A
b1 (
b1 J
1)
b11 +
b11 M
b11 _
b1 ,
b1 =
b1 `
b11 '
b11 ;
b11111111111111111111111111111110 :
b11111111111111111111111111111110 ^
b100000 E
b0 F
b110011 C
b11 ]
b10 \
b1 [
b100100 9
b100100 Y
01
b1010 8
b1010 <
b1010 G
06
b0 3
b0 H
b0 S
b10000000010 4
b10000000010 U
b1000000001000001000000110110011 2
b1000000001000001000000110110011 D
b1000000001000001000000110110011 T
b1000000001000001000000110110011 V
b1000 W
b10000100010 -
b100100 /
b100000 0
b100000 X
b100000 Z
b100 !
b100 5
b100 P
1"
#90000
0"
#95000
b10100 *
b10100 O
1N
1R
0Q
b0 :
b0 ^
b0 '
b0 ;
b1111111111111111111111111111100 7
b1111111111111111111111111111100 >
b1111111111111111111111111111100 K
b0 B
b0 @
b1111111111111111111111111111100 ?
b1111111111111111111111111111100 A
11
16
b1 3
b1 H
b1 S
b11111111111111111111111111111110 +
b11111111111111111111111111111110 M
b11111111111111111111111111111110 _
b1111111111111111111111111111100 ,
b1111111111111111111111111111100 =
b1111111111111111111111111111100 `
b0 E
b10 F
b100011 C
b0 ]
b11 \
b11111 [
b101000 9
b101000 Y
b0 (
b0 J
b10 8
b10 <
b10 G
0)
b0 4
b0 U
b1111111010000000100011 2
b1111111010000000100011 D
b1111111010000000100011 T
b1111111010000000100011 V
b1001 W
b100100 -
b101000 /
b100100 0
b100100 X
b100100 Z
1"
#100000
0"
#105000
bx *
bx O
0N
0R
b11 7
b11 >
b11 K
b1 B
b11 @
b100 ?
b1000 A
b1 (
b1 J
1)
b11 +
b11 M
b11 _
b1 ,
b1 =
b1 `
b11 '
b11 ;
b11 :
b11 ^
b110 F
b110011 C
b11 ]
b10 \
b1 [
b101100 9
b101100 Y
01
b111 8
b111 <
b111 G
06
b0 3
b0 H
b0 S
b10 4
b10 U
b1000001110000110110011 2
b1000001110000110110011 D
b1000001110000110110011 T
b1000001110000110110011 V
b1010 W
b101010 -
b101100 /
b101000 0
b101000 X
b101000 Z
b11111111111111111111111111111110 !
b11111111111111111111111111111110 5
b11111111111111111111111111111110 P
1"
