SVcode/risc_v/risc_v_tb.vcd
$date
	Sun Mar 29 07:22:50 2026
$end
$version
	Icarus Verilog
$end
$timescale
	1ps
$end
$scope module risc_v_tb $end
$var wire 32 ! CPUOut [31:0] $end
$var reg 1 " CLK $end
$var reg 32 # CPUIn [31:0] $end
$var reg 1 $ reset $end
$scope module dut $end
$var wire 1 " CLK $end
$var wire 32 % CPUIn [31:0] $end
$var wire 1 $ reset $end
$var wire 1 & Zero $end
$var wire 32 ' SrcB [31:0] $end
$var wire 2 ( ResultSrc [1:0] $end
$var wire 1 ) RegWrite $end
$var wire 32 * ReadData [31:0] $end
$var wire 32 + RD2 [31:0] $end
$var wire 32 , RD1 [31:0] $end
$var wire 32 - PCTarget [31:0] $end
$var wire 2 . PCSrc [1:0] $end
$var wire 32 / PCPlus4 [31:0] $end
$var wire 32 0 PC [31:0] $end
$var wire 1 1 MemWrite $end
$var wire 32 2 Instr [31:0] $end
$var wire 3 3 ImmSrc [2:0] $end
$var wire 32 4 ImmExt [31:0] $end
$var wire 32 5 CPUOut [31:0] $end
$var wire 1 6 ALUSrc $end
$var wire 32 7 ALUResult [31:0] $end
$var wire 5 8 ALUControl [4:0] $end
$var reg 32 9 PCNext [31:0] $end
$var reg 32 : Result [31:0] $end
$scope module u_alu $end
$var wire 32 ; B [31:0] $end
$var wire 1 & Zero $end
$var wire 5 < ALUControl [4:0] $end
$var wire 32 = A [31:0] $end
$var reg 32 > ALUResult [31:0] $end
$var reg 32 ? arith_result [31:0] $end
$var reg 32 @ logic_result [31:0] $end
$var reg 32 A shift_result [31:0] $end
$var reg 32 B slt_result [31:0] $end
$upscope $end
$scope module u_control_unit $end
$var wire 1 & Zero $end
$var wire 7 C opcode [6:0] $end
$var wire 32 D instr [31:0] $end
$var wire 7 E funct7 [6:0] $end
$var wire 3 F funct3 [2:0] $end
$var reg 5 G ALUControl [4:0] $end
$var reg 1 6 ALUSrc $end
$var reg 3 H ImmSrc [2:0] $end
$var reg 1 1 MemWrite $end
$var reg 2 I PCSrc [1:0] $end
$var reg 1 ) RegWrite $end
$var reg 2 J ResultSrc [1:0] $end
$upscope $end
$scope module u_data_memory_and_io $end
$var wire 32 K A [31:0] $end
$var wire 1 " CLK $end
$var wire 32 L CPUIn [31:0] $end
$var wire 1 1 WE $end
$var wire 32 M WD [31:0] $end
$var wire 1 N RDsel $end
$var wire 32 O RD [31:0] $end
$var reg 32 P CPUOut [31:0] $end
$var reg 1 Q WEM $end
$var reg 1 R WEOut $end
$upscope $end
$scope module u_extend $end
$var wire 3 S ImmSrc [2:0] $end
$var wire 32 T Instr [31:0] $end
$var reg 32 U ImmExt [31:0] $end
$upscope $end
$scope module u_instruction_memory $end
$var wire 32 V Instr [31:0] $end
$var wire 32 W PC_divided_by_4 [31:0] $end
$var wire 32 X PC [31:0] $end
$upscope $end
$scope module u_pc $end
$var wire 1 " CLK $end
$var wire 32 Y PCNext [31:0] $end
$var wire 1 $ reset $end
$var reg 32 Z PC [31:0] $end
$upscope $end
$scope module u_reg_file $end
$var wire 5 [ A1 [4:0] $end
$var wire 5 \ A2 [4:0] $end
$var wire 5 ] A3 [4:0] $end
$var wire 1 " CLK $end
$var wire 32 ^ WD3 [31:0] $end
$var wire 1 ) WE3 $end
$var wire 32 _ RD2 [31:0] $end
$var wire 32 ` RD1 [31:0] $end
$upscope $end
$upscope $end
$upscope $end
$scope module risc_v_tb $end
$scope module dut $end
$scope module u_reg_file $end
$var reg 32 a \RF[1] [31:0] $end
$upscope $end
$upscope $end
$upscope $end
$scope module risc_v_tb $end
$scope module dut $end
$scope module u_reg_file $end
$var reg 32 b \RF[2] [31:0] $end
$upscope $end
$upscope $end
$upscope $end
$scope module risc_v_tb $end
$scope module dut $end
$scope module u_reg_file $end
$var reg 32 c \RF[3] [31:0] $end
$upscope $end
$upscope $end
$upscope $end
$enddefinitions $end
#0
$dumpvars
bx c
bx b
bx a
bx `
bx _
bx ^
bx ]
bx \
bx [
bx Z
bx Y
bx X
bx W
bx V
bx U
bx T
b0 S
0R
0Q
bx P
bx O
xN
bx M
b10100 L
bx K
b0 J
b0 I
b0 H
b0 G
bx F
bx E
bx D
bx C
b0x B
bx A
bx @
bx ?
bx >
bx =
b0 <
bx ;
bx :
bx 9
b0 8
bx 7
06
bx 5
bx 4
b0 3
bx 2
01
bx 0
bx /
b0 .
bx -
bx ,
bx +
bx *
0)
b0 (
bx '
x&
b10100 %
1$
b10100 #
0"
bx !
$end
#5000
0N
1&
b0 7
b0 >
b0 K
b0 B
b0 ?
b0 A
b0 '
b0 ;
b0 @
b11 3
b11 H
b11 S
1)
b0 +
b0 M
b0 _
b0 ,
b0 =
b0 `
b10000000000000000000000000000000 :
b10000000000000000000000000000000 ^
b1000000 E
b0 F
b110111 C
b11111 ]
b0 \
b0 [
b100 9
b100 Y
b10000000000000000000000000000000 -
b10000000000000000000000000000000 4
b10000000000000000000000000000000 U
b10000000000000000000111110110111 2
b10000000000000000000111110110111 D
b10000000000000000000111110110111 T
b10000000000000000000111110110111 V
b0 W
b100 /
b0 0
b0 X
b0 Z
1"
#10000
0"
#12000
0$
#15000
b10100 *
b10100 O
1N
b10000000000000000000000000000000 @
b11111111111111111111111111111100 '
b11111111111111111111111111111100 ;
0&
b1111111111111111111111111111100 7
b1111111111111111111111111111100 >
b1111111111111111111111111111100 K
b1 B
b1111111111111111111111111111100 ?
b0 A
b10 8
b10 <
b10 G
b1 (
b1 J
16
bx +
bx M
bx _
b10000000000000000000000000000000 ,
b10000000000000000000000000000000 =
b10000000000000000000000000000000 `
b1111111111111111111111111111100 :
b1111111111111111111111111111100 ^
b1111111 E
b10011 C
b11100 \
b11111 [
b1000 9
b1000 Y
b0 3
b0 H
b0 S
1)
b11111111111111111111111111111100 4
b11111111111111111111111111111100 U
b11111111110011111000111110010011 2
b11111111110011111000111110010011 D
b11111111110011111000111110010011 T
b11111111110011111000111110010011 V
b1 W
b0 -
b1000 /
b100 0
b100 X
b100 Z
1"
#20000
0"
#25000
bx *
bx O
0N
b0 +
b0 M
b0 _
b10000000 '
b10000000 ;
b10000000 :
b10000000 ^
b100 E
b1 ]
b0 \
b0 [
b1100 9
b1100 Y
b1 (
b1 J
b10 8
b10 <
b10 G
16
1)
b10000000 4
b10000000 U
b10000000 7
b10000000 >
b10000000 K
b1 B
b0 @
b10000000 ?
b0 A
b0 ,
b0 =
b0 `
b1000000000000000000010010011 2
b1000000000000000000010010011 D
b1000000000000000000010010011 T
b1000000000000000000010010011 V
b10 W
b10001000 -
b1100 /
b1000 0
b1000 X
b1000 Z
1"
#30000
0"
#35000
b10100 *
b10100 O
1N
1R
0Q
b0 :
b0 ^
b1111111111111111111111111111100 7
b1111111111111111111111111111100 >
b1111111111111111111111111111100 K
b0 B
b1111111111111111111111111111100 ?
b1111111111111111111111111111100 A
11
b1 3
b1 H
b1 S
b10000000 +
b10000000 M
b10000000 _
b1111111111111111111111111111100 ,
b1111111111111111111111111111100 =
b1111111111111111111111111111100 `
b0 '
b0 ;
b0 E
b10 F
b100011 C
b0 ]
b1 \
b11111 [
b10000 9
b10000 Y
b0 (
b0 J
b10 8
b10 <
b10 G
16
0)
b0 4
b0 U
b10000000 a
b111111010000000100011 2
b111111010000000100011 D
b111111010000000100011 T
b111111010000000100011 V
b11 W
b1100 -
b10000 /
b1100 0
b1100 X
b1100 Z
1"
#40000
0"
#45000
bx *
bx O
0N
0R
b1 7
b1 >
b1 K
b1 B
b1 ?
b0 A
b1 (
b1 J
1)
b0 ,
b0 =
b0 `
b1 '
b1 ;
b1 :
b1 ^
b0 F
b10011 C
b1 ]
b0 [
b10100 9
b10100 Y
01
b10 8
b10 <
b10 G
16
b0 3
b0 H
b0 S
b1 4
b1 U
b100000000000010010011 2
b100000000000010010011 D
b100000000000010010011 T
b100000000000010010011 V
b100 W
b10001 -
b10100 /
b10000 0
b10000 X
b10000 Z
b10000000 !
b10000000 5
b10000000 P
1"
#50000
0"
#55000
b11 :
b11 ^
b11 7
b11 >
b11 K
b11 ?
b11 '
b11 ;
bx +
bx M
bx _
b10 ]
b11 \
b11000 9
b11000 Y
b1 (
b1 J
b10 8
b10 <
b10 G
16
1)
b11 4
b11 U
b1 a
b1100000000000100010011 2
b1100000000000100010011 D
b1100000000000100010011 T
b1100000000000100010011 V
b101 W
b10111 -
b11000 /
b10100 0
b10100 X
b10100 Z
1"
#60000
0"
#65000
b100 :
b100 ^
b100 7
b100 >
b100 K
b1 @
b100 ?
b1000 A
b11 +
b11 M
b11 _
b1 ,
b1 =
b1 `
b11 '
b11 ;
b110011 C
b11 ]
b10 \
b1 [
b11100 9
b11100 Y
b1 (
b1 J
b10 8
b10 <
b10 G
06
1)
b10 4
b10 U
b1000001000000110110011 2
b1000001000000110110011 D
b1000001000000110110011 T
b1000001000000110110011 V
b110 W
b11010 -
b11100 /
b11000 0
b11000 X
b11000 Z
b11 b
1"
#70000
0"
#75000
b10100 *
b10100 O
1N
1R
0Q
b0 :
b0 ^
b0 '
b0 ;
b1111111111111111111111111111100 7
b1111111111111111111111111111100 >
b1111111111111111111111111111100 K
b0 B
b0 @
b1111111111111111111111111111100 ?
b1111111111111111111111111111100 A
11
16
b1 3
b1 H
b1 S
b100 +
b100 M
b100 _
b1111111111111111111111111111100 ,
b1111111111111111111111111111100 =
b1111111111111111111111111111100 `
b10 F
b100011 C
b0 ]
b11 \
b11111 [
b100000 9
b100000 Y
b0 (
b0 J
b10 8
b10 <
b10 G
0)
b0 4
b0 U
b100 c
b1111111010000000100011 2
b1111111010000000100011 D
b1111111010000000100011 T
b1111111010000000100011 V
b111 W
b11100 -
b100000 /
b11100 0
b11100 X
b11100 Z
1"
#80000
0"
#85000
bx *
bx O
0N
0R
b11111111111111111111111111111110 7
b11111111111111111111111111111110 >
b11111111111111111111111111111110 K
b1 B
b1 @
b11111111111111111111111111111110 ?
b1000 A
b1 (
b1 J
1)
b11 +
b11 M
b11 _
b1 ,
b1 =
b1 `
b11 '
b11 ;
b11111111111111111111111111111110 :
b11111111111111111111111111111110 ^
b100000 E
b0 F
b110011 C
b11 ]
b10 \
b1 [
b100100 9
b100100 Y
01
b1010 8
b1010 <
b1010 G
06
b0 3
b0 H
b0 S
b10000000010 4
b10000000010 U
b1000000001000001000000110110011 2
b1000000001000001000000110110011 D
b1000000001000001000000110110011 T
b1000000001000001000000110110011 V
b1000 W
b10000100010 -
b100100 /
b100000 0
b100000 X
b100000 Z
b100 !
b100 5
b100 P
1"
#90000
0"
#95000
b10100 *
b10100 O
1N
1R
0Q
b0 :
b0 ^
b0 '
b0 ;
b1111111111111111111111111111100 7
b1111111111111111111111111111100 >
b1111111111111111111111111111100 K
b0 B
b0 @
b1111111111111111111111111111100 ?
b1111111111111111111111111111100 A
11
16
b1 3
b1 H
b1 S
b11111111111111111111111111111110 +
b11111111111111111111111111111110 M
b11111111111111111111111111111110 _
b1111111111111111111111111111100 ,
b1111111111111111111111111111100 =
b1111111111111111111111111111100 `
b0 E
b10 F
b100011 C
b0 ]
b11 \
b11111 [
b101000 9
b101000 Y
b0 (
b0 J
b10 8
b10 <
b10 G
0)
b0 4
b0 U
b11111111111111111111111111111110 c
b1111111010000000100011 2
b1111111010000000100011 D
b1111111010000000100011 T
b1111111010000000100011 V
b1001 W
b100100 -
b101000 /
b100100 0
b100100 X
b100100 Z
1"
#100000
0"
#105000
bx *
bx O
0N
0R
b11 7
b11 >
b11 K
b1 B
b11 @
b100 ?
b1000 A
b1 (
b1 J
1)
b11 +
b11 M
b11 _
b1 ,
b1 =
b1 `
b11 '
b11 ;
b11 :
b11 ^
b110 F
b110011 C
b11 ]
b10 \
b1 [
b101100 9
b101100 Y
01
b111 8
b111 <
b111 G
06
b0 3
b0 H
b0 S
b10 4
b10 U
b1000001110000110110011 2
b1000001110000110110011 D
b1000001110000110110011 T
b1000001110000110110011 V
b1010 W
b101010 -
b101100 /
b101000 0
b101000 X
b101000 Z
b11111111111111111111111111111110 !
b11111111111111111111111111111110 5
b11111111111111111111111111111110 P
1"
#110000
0"
#115000
b10100 *
b10100 O
1N
1R
b0 '
b0 ;
0Q
b0 :
b0 ^
b1111111111111111111111111111100 7
b1111111111111111111111111111100 >
b1111111111111111111111111111100 K
b0 B
b0 @
b1111111111111111111111111111100 ?
b1111111111111111111111111111100 A
11
16
b1 3
b1 H
b1 S
b1111111111111111111111111111100 ,
b1111111111111111111111111111100 =
b1111111111111111111111111111100 `
b10 F
b100011 C
b0 ]
b11 \
b11111 [
b110000 9
b110000 Y
b0 (
b0 J
b10 8
b10 <
b10 G
0)
b0 4
b0 U
b11 c
b1111111010000000100011 2
b1111111010000000100011 D
b1111111010000000100011 T
b1111111010000000100011 V
b1011 W
b101100 -
b110000 /
b101100 0
b101100 X
b101100 Z
1"
#120000
0"
#125000
bx *
bx O
0N
0R
b1000 7
b1000 >
b1000 K
b1 B
b1 @
b100 ?
b1000 A
b1 (
b1 J
1)
b1 ,
b1 =
b1 `
b11 '
b11 ;
b1000 :
b1000 ^
b1 F
b110011 C
b11 ]
b10 \
b1 [
b110100 9
b110100 Y
01
b0 8
b0 <
b0 G
06
b0 3
b0 H
b0 S
b10 4
b10 U
b1000001001000110110011 2
b1000001001000110110011 D
b1000001001000110110011 T
b1000001001000110110011 V
b1100 W
b110010 -
b110100 /
b110000 0
b110000 X
b110000 Z
b11 !
b11 5
b11 P
1"
#130000
0"
#135000
b10100 *
b10100 O
1N
1R
0Q
b0 :
b0 ^
b0 '
b0 ;
b1111111111111111111111111111100 7
b1111111111111111111111111111100 >
b1111111111111111111111111111100 K
b0 B
b0 @
b1111111111111111111111111111100 ?
b1111111111111111111111111111100 A
11
b10 8
b10 <
b10 G
16
b1 3
b1 H
b1 S
b1000 +
b1000 M
b1000 _
b1111111111111111111111111111100 ,
b1111111111111111111111111111100 =
b1111111111111111111111111111100 `
b10 F
b100011 C
b0 ]
b11 \
b11111 [
b111000 9
b111000 Y
b0 (
b0 J
0)
b0 4
b0 U
b1000 c
b1111111010000000100011 2
b1111111010000000100011 D
b1111111010000000100011 T
b1111111010000000100011 V
b1101 W
b110100 -
b111000 /
b110100 0
b110100 X
b110100 Z
1"
#140000
0"
#145000
bx *
bx O
0N
0R
b1 7
b1 >
b1 K
b1 B
b1 @
b11111111111111111111111111111110 ?
b1000 A
b1 (
b1 J
1)
b11 +
b11 M
b11 _
b1 ,
b1 =
b1 `
b11 '
b11 ;
b1 :
b1 ^
b110011 C
b11 ]
b10 \
b1 [
b111100 9
b111100 Y
01
b1001 8
b1001 <
b1001 G
06
b0 3
b0 H
b0 S
b10 4
b10 U
b1000001010000110110011 2
b1000001010000110110011 D
b1000001010000110110011 T
b1000001010000110110011 V
b1110 W
b111010 -
b111100 /
b111000 0
b111000 X
b111000 Z
b1000 !
b1000 5
b1000 P
1"
#150000
0"
#155000
b10100 *
b10100 O
1N
1R
0Q
b0 :
b0 ^
b0 '
b0 ;
b1111111111111111111111111111100 7
b1111111111111111111111111111100 >
b1111111111111111111111111111100 K
b0 B
b0 @
b1111111111111111111111111111100 ?
b1111111111111111111111111111100 A
11
16
b1 3
b1 H
b1 S
b1 +
b1 M
b1 _
b1111111111111111111111111111100 ,
b1111111111111111111111111111100 =
b1111111111111111111111111111100 `
b100011 C
b0 ]
b11 \
b11111 [
b1000000 9
b1000000 Y
b0 (
b0 J
b10 8
b10 <
b10 G
0)
b0 4
b0 U
b1 c
b1111111010000000100011 2
b1111111010000000100011 D
b1111111010000000100011 T
b1111111010000000100011 V
b1111 W
b111100 -
b1000000 /
b111100 0
b111100 X
b111100 Z
1"
#160000
0"
#165000
bx *
bx O
0N
b1 B
0R
b11 7
b11 >
b11 K
b11 @
b1010 ?
b110000000 A
b1 (
b1 J
1)
bx +
bx M
bx _
b11 ,
b11 =
b11 `
b111 '
b111 ;
b11 :
b11 ^
b111 F
b10011 C
b11 ]
b111 \
b10 [
b1000100 9
b1000100 Y
01
b11 8
b11 <
b11 G
16
b0 3
b0 H
b0 S
b111 4
b111 U
b11100010111000110010011 2
b11100010111000110010011 D
b11100010111000110010011 T
b11100010111000110010011 V
b10000 W
b1000111 -
b1000100 /
b1000000 0
b1000000 X
b1000000 Z
b1 !
b1 5
b1 P
1"
#170000
0"
#175000
b10100 *
b10100 O
1N
1R
0Q
b0 :
b0 ^
b1111111111111111111111111111100 7
b1111111111111111111111111111100 >
b1111111111111111111111111111100 K
b0 B
b0 @
b1111111111111111111111111111100 ?
b1111111111111111111111111111100 A
11
b1 3
b1 H
b1 S
b11 +
b11 M
b11 _
b1111111111111111111111111111100 ,
b1111111111111111111111111111100 =
b1111111111111111111111111111100 `
b0 '
b0 ;
b10 F
b100011 C
b0 ]
b11 \
b11111 [
b1001000 9
b1001000 Y
b0 (
b0 J
b10 8
b10 <
b10 G
16
0)
b0 4
b0 U
b11 c
b1111111010000000100011 2
b1111111010000000100011 D
b1111111010000000100011 T
b1111111010000000100011 V
b10001 W
b1000100 -
b1001000 /
b1000100 0
b1000100 X
b1000100 Z
1"
#180000
0"
#185000
bx *
bx O
0N
0R
0&
b1 7
b1 >
b1 K
b1 @
b100 ?
b1 A
b1 (
b1 J
1)
b1 +
b1 M
b1 _
b11 ,
b11 =
b11 `
b1 '
b1 ;
b1 :
b1 ^
b101 F
b10011 C
b11 ]
b1 \
b10 [
b1001100 9
b1001100 Y
01
b10000 8
b10000 <
b10000 G
16
b0 3
b0 H
b0 S
b1 4
b1 U
b100010101000110010011 2
b100010101000110010011 D
b100010101000110010011 T
b100010101000110010011 V
b10010 W
b1001001 -
b1001100 /
b1001000 0
b1001000 X
b1001000 Z
b11 !
b11 5
b11 P
1"
#190000
0"
#195000
b10100 *
b10100 O
1N
1R
0Q
b0 :
b0 ^
b1111111111111111111111111111100 7
b1111111111111111111111111111100 >
b1111111111111111111111111111100 K
b0 @
b1111111111111111111111111111100 ?
b1111111111111111111111111111100 A
11
b1 3
b1 H
b1 S
b1111111111111111111111111111100 ,
b1111111111111111111111111111100 =
b1111111111111111111111111111100 `
b0 '
b0 ;
b10 F
b100011 C
b0 ]
b11 \
b11111 [
b1010000 9
b1010000 Y
b0 (
b0 J
b10 8
b10 <
b10 G
16
0)
b0 4
b0 U
b1 c
b1111111010000000100011 2
b1111111010000000100011 D
b1111111010000000100011 T
b1111111010000000100011 V
b10011 W
b1001100 -
b1010000 /
b1001100 0
b1001100 X
b1001100 Z
1"
#200000
0"
#205000
bx *
bx O
0N
0R
1&
b0 7
b0 >
b0 K
b1 @
b10 ?
b10000000000000000000000000000000 A
b1 (
b1 J
1)
b1111111111111111111111111111100 +
b1111111111111111111111111111100 M
b1111111111111111111111111111100 _
b1 ,
b1 =
b1 `
b11111111111111111111111111111111 '
b11111111111111111111111111111111 ;
b0 :
b0 ^
b1111111 E
b10011 C
b11 ]
b11111 \
b1 [
b1010100 9
b1010100 Y
01
b1001 8
b1001 <
b1001 G
16
b0 3
b0 H
b0 S
b11111111111111111111111111111111 4
b11111111111111111111111111111111 U
b11111111111100001010000110010011 2
b11111111111100001010000110010011 D
b11111111111100001010000110010011 T
b11111111111100001010000110010011 V
b10100 W
b1001111 -
b1010100 /
b1010000 0
b1010000 X
b1010000 Z
b1 !
b1 5
b1 P
1"
#210000
0"
#215000
b10100 *
b10100 O
1N
1R
0Q
0&
b1111111111111111111111111111100 7
b1111111111111111111111111111100 >
b1111111111111111111111111111100 K
b0 @
b1111111111111111111111111111100 ?
b1111111111111111111111111111100 A
11
b1 3
b1 H
b1 S
b0 +
b0 M
b0 _
b1111111111111111111111111111100 ,
b1111111111111111111111111111100 =
b1111111111111111111111111111100 `
b0 '
b0 ;
b0 E
b100011 C
b0 ]
b11 \
b11111 [
b1011000 9
b1011000 Y
b0 (
b0 J
b10 8
b10 <
b10 G
16
0)
b0 4
b0 U
b0 c
b1111111010000000100011 2
b1111111010000000100011 D
b1111111010000000100011 T
b1111111010000000100011 V
b10101 W
b1010100 -
b1011000 /
b1010100 0
b1010100 X
b1010100 Z
1"
#220000
0"
#225000
bx *
bx O
0N
1Q
0R
1&
b0 7
b0 >
b0 K
b0 ?
b0 A
b11 +
b11 M
b11 _
b0 ,
b0 =
b0 `
b10 \
b0 [
b1011100 9
b1011100 Y
11
b10 8
b10 <
b10 G
16
b1 3
b1 H
b1 S
b1000000010000000100011 2
b1000000010000000100011 D
b1000000010000000100011 T
b1000000010000000100011 V
b10110 W
b1011000 -
b1011100 /
b1011000 0
b1011000 X
b1011000 Z
b0 !
b0 5
b0 P
1"
#230000
0"
#235000
0Q
1&
b0 7
b0 >
b0 K
b0 B
b0 ?
b10 (
b10 J
1)
b0 +
b0 M
b0 _
b0 '
b0 ;
b11 :
b11 ^
b11 *
b11 O
b11 C
b11 ]
b0 \
b1100000 9
b1100000 Y
01
b10 8
b10 <
b10 G
16
b0 3
b0 H
b0 S
b0 4
b0 U
b10000110000011 2
b10000110000011 D
b10000110000011 T
b10000110000011 V
b10111 W
b1011100 -
b1100000 /
b1011100 0
b1011100 X
b1011100 Z
1"
#240000
0"
#245000
1N
1R
b10100 *
b10100 O
0Q
b0 :
b0 ^
0&
b1111111111111111111111111111100 7
b1111111111111111111111111111100 >
b1111111111111111111111111111100 K
b1111111111111111111111111111100 ?
b1111111111111111111111111111100 A
11
b1 3
b1 H
b1 S
b11 +
b11 M
b11 _
b1111111111111111111111111111100 ,
b1111111111111111111111111111100 =
b1111111111111111111111111111100 `
b0 '
b0 ;
b100011 C
b0 ]
b11 \
b11111 [
b1100100 9
b1100100 Y
b0 (
b0 J
b10 8
b10 <
b10 G
16
0)
b0 4
b0 U
b1111111010000000100011 2
b1111111010000000100011 D
b1111111010000000100011 T
b1111111010000000100011 V
b11000 W
b1100000 -
b1100100 /
b1100000 0
b1100000 X
b1100000 Z
b11 c
1"
#250000
0"
#255000
b11xxxxxxxxxxxxxxxx *
b11xxxxxxxxxxxxxxxx O
0N
b1 B
b1 @
0R
b11 '
b11 ;
b11111111111111111111111111111110 7
b11111111111111111111111111111110 >
b11111111111111111111111111111110 K
b11111111111111111111111111111110 ?
b1000 A
b1 ,
b1 =
b1 `
b0 F
b1100011 C
b10 \
b1 [
b1101000 9
b1101000 Y
01
b1010 8
b1010 <
b1010 G
06
b10 3
b10 H
b10 S
b11 !
b11 5
b11 P
b1000001000000001100011 2
b1000001000000001100011 D
b1000001000000001100011 T
b1000001000000001100011 V
b11001 W
b1100100 -
b1101000 /
b1100100 0
b1100100 X
b1100100 Z
1"
#260000
0"
#265000
b1 .
b1 I
b1100 :
b1100 ^
b1 F
b1100 ]
b1110100 9
b1110100 Y
b1010 8
b1010 <
b1010 G
b10 3
b10 H
b10 S
b1100 4
b1100 U
b1000001001011001100011 2
b1000001001011001100011 D
b1000001001011001100011 T
b1000001001011001100011 V
b11010 W
b1110100 -
b1101100 /
b1101000 0
b1101000 X
b1101000 Z
1"
#270000
0"
#275000
b1111000 9
b1111000 Y
b11 *
b11 O
b1 '
b1 ;
1&
b0 7
b0 >
b0 K
b0 B
b1 @
b10 ?
b110 A
b1 +
b1 M
b1 _
b11 ,
b11 =
b11 `
b0 :
b0 ^
b100 F
b0 ]
b1 \
b10 [
b0 .
b0 I
b1001 8
b1001 <
b1001 G
b10 3
b10 H
b10 S
b0 4
b0 U
b100010100000001100011 2
b100010100000001100011 D
b100010100000001100011 T
b100010100000001100011 V
b11101 W
b1110100 -
b1111000 /
b1110100 0
b1110100 X
b1110100 Z
1"
#280000
0"
#285000
b1 .
b1 I
b1100 :
b1100 ^
b101 F
b1100 ]
b10000100 9
b10000100 Y
b1001 8
b1001 <
b1001 G
b10 3
b10 H
b10 S
b1100 4
b1100 U
b100010101011001100011 2
b100010101011001100011 D
b100010101011001100011 T
b100010101011001100011 V
b11110 W
b10000100 -
b1111100 /
b1111000 0
b1111000 X
b1111000 Z
1"
#290000
0"
#295000
xN
bx *
bx O
x&
bx 7
bx >
bx K
bx '
bx ;
b0x B
b0 @
bx ?
bx A
b11 (
b11 J
1)
bx +
bx M
bx _
b0 ,
b0 =
b0 `
b10001000 :
b10001000 ^
b0 F
b1101111 C
b100 ]
b10000 \
b0 [
b10010100 9
b10010100 Y
b1 .
b1 I
b0 8
b0 <
b0 G
b100 3
b100 H
b100 S
b10000 4
b10000 U
b1000000000000001001101111 2
b1000000000000001001101111 D
b1000000000000001001101111 T
b1000000000000001001101111 V
b100001 W
b10010100 -
b10001000 /
b10000100 0
b10000100 X
b10000100 Z
1"
#300000
0"
#305000
0N
0&
b100010001 7
b100010001 >
b100010001 K
b1 B
b100010001 ?
b0 A
b100010001 '
b100010001 ;
b10 8
b10 <
b10 G
16
b1000 E
b10011 C
b11 ]
b10001 \
b10011000 9
b10011000 Y
b0 .
b0 I
b1 (
b1 J
b0 3
b0 H
b0 S
1)
b100010001 4
b100010001 U
b100010001 :
b100010001 ^
b10001000100000000000110010011 2
b10001000100000000000110010011 D
b10001000100000000000110010011 T
b10001000100000000000110010011 V
b100101 W
b110100101 -
b10011000 /
b10010100 0
b10010100 X
b10010100 Z
1"
#310000
0"
#315000
b10100 *
b10100 O
1N
1R
0Q
b0 :
b0 ^
b1111111111111111111111111111100 7
b1111111111111111111111111111100 >
b1111111111111111111111111111100 K
b0 B
b1111111111111111111111111111100 ?
b1111111111111111111111111111100 A
11
b1 3
b1 H
b1 S
b100010001 +
b100010001 M
b100010001 _
b1111111111111111111111111111100 ,
b1111111111111111111111111111100 =
b1111111111111111111111111111100 `
b0 '
b0 ;
b0 E
b10 F
b100011 C
b0 ]
b11 \
b11111 [
b10011100 9
b10011100 Y
b0 (
b0 J
b10 8
b10 <
b10 G
16
0)
b0 4
b0 U
b100010001 c
b1111111010000000100011 2
b1111111010000000100011 D
b1111111010000000100011 T
b1111111010000000100011 V
b100110 W
b10011000 -
b10011100 /
b10011000 0
b10011000 X
b10011000 Z
1"
#320000
0"
#325000
bx *
bx O
0N
b10100000 :
b10100000 ^
0R
b10001000 7
b10001000 >
b10001000 K
b10001000 ?
b10001000 A
b10 .
b10 I
b11 (
b11 J
1)
b0 +
b0 M
b0 _
b10001000 ,
b10001000 =
b10001000 `
b0 F
b1100111 C
b0 \
b100 [
b10001000 9
b10001000 Y
01
b10 8
b10 <
b10 G
16
b0 3
b0 H
b0 S
b100000000001100111 2
b100000000001100111 D
b100000000001100111 T
b100000000001100111 V
b100111 W
b10011100 -
b10100000 /
b10011100 0
b10011100 X
b10011100 Z
b100010001 !
b100010001 5
b100010001 P
1"
#330000
0"
#335000
b10001100 9
b10001100 Y
b11110001001 7
b11110001001 >
b11110001001 K
b1 B
b11110001001 ?
b0 A
bx +
bx M
bx _
b0 ,
b0 =
b0 `
b11110001001 '
b11110001001 ;
b111100 E
b10011 C
b11 ]
b1001 \
b0 [
b0 .
b0 I
b1 (
b1 J
b10 8
b10 <
b10 G
16
1)
b11110001001 4
b11110001001 U
b11110001001 :
b11110001001 ^
b1111000100100000000000110010011 2
b1111000100100000000000110010011 D
b1111000100100000000000110010011 T
b1111000100100000000000110010011 V
b100010 W
b100000010001 -
b10001100 /
b10001000 0
b10001000 X
b10001000 Z
1"
#340000
0"
#345000
b10100 *
b10100 O
1N
1R
0Q
b0 :
b0 ^
b1111111111111111111111111111100 7
b1111111111111111111111111111100 >
b1111111111111111111111111111100 K
b0 B
b1111111111111111111111111111100 ?
b1111111111111111111111111111100 A
11
b1 3
b1 H
b1 S
b11110001001 +
b11110001001 M
b11110001001 _
b1111111111111111111111111111100 ,
b1111111111111111111111111111100 =
b1111111111111111111111111111100 `
b0 '
b0 ;
b0 E
b10 F
b100011 C
b0 ]
b11 \
b11111 [
b10010000 9
b10010000 Y
b0 (
b0 J
b10 8
b10 <
b10 G
16
0)
b0 4
b0 U
b1111111010000000100011 2
b1111111010000000100011 D
b1111111010000000100011 T
b1111111010000000100011 V
b100011 W
b10001100 -
b10010000 /
b10001100 0
b10001100 X
b10001100 Z
b11110001001 c
1"
#350000
0"
#355000
bx *
bx O
xN
b0x B
b10010100 :
b10010100 ^
0R
bx '
bx ;
b10000 4
b10000 U
x&
bx 7
bx >
bx K
bx ?
bx A
b1 .
b1 I
b11 (
b11 J
1)
bx +
bx M
bx _
b0 ,
b0 =
b0 `
b0 F
b1101111 C
b10000 \
b0 [
b10100000 9
b10100000 Y
01
b0 8
b0 <
b0 G
06
b100 3
b100 H
b100 S
b11110001001 !
b11110001001 5
b11110001001 P
b1000000000000000001101111 2
b1000000000000000001101111 D
b1000000000000000001101111 T
b1000000000000000001101111 V
b100100 W
b10100000 -
b10010100 /
b10010000 0
b10010000 X
b10010000 Z
1"
#360000
0"
#365000
bx @
bx ,
bx =
bx `
bx E
bx F
bx C
bx ]
bx \
bx [
b10100100 9
b10100100 Y
b0 .
b0 I
b0 (
b0 J
b0 3
b0 H
b0 S
0)
bx 4
bx U
bx :
bx ^
bx 2
bx D
bx T
bx V
b101000 W
bx -
b10100100 /
b10100000 0
b10100000 X
b10100000 Z
1"
#370000
0"
#375000
b10101000 9
b10101000 Y
b101001 W
b10101000 /
b10100100 0
b10100100 X
b10100100 Z
1"
#380000
0"
#385000
b10101100 9
b10101100 Y
b101010 W
b10101100 /
b10101000 0
b10101000 X
b10101000 Z
1"
#390000
0"
#395000
b10110000 9
b10110000 Y
b101011 W
b10110000 /
b10101100 0
b10101100 X
b10101100 Z
1"
#400000
0"
#405000
b10110100 9
b10110100 Y
b101100 W
b10110100 /
b10110000 0
b10110000 X
b10110000 Z
1"
#410000
0"
#415000
b10111000 9
b10111000 Y
b101101 W
b10111000 /
b10110100 0
b10110100 X
b10110100 Z
1"
#420000
0"
#425000
b10111100 9
b10111100 Y
b101110 W
b10111100 /
b10111000 0
b10111000 X
b10111000 Z
1"
