SVcode/pc/output_vcd.txt
VCD info: dumpfile program_counter_tb.vcd opened for output.
Time	CLK	reset	PCNext		PC
0	0	1	00000004	xxxxxxxx
5000	1	1	00000004	00000000
10000	0	0	00000004	00000000
15000	1	0	00000004	00000004
20000	0	0	00000008	00000004
25000	1	0	00000008	00000008
30000	0	0	0000000c	00000008
35000	1	0	0000000c	0000000c
40000	0	1	00000010	0000000c
45000	1	1	00000010	00000000
50000	0	0	00000014	00000000
55000	1	0	00000014	00000014
60000	0	0	00000014	00000014
